Task: Parity 
Number of Network Nodes: 8
Number of MNIST Input Features: 25
Overall Node State size: 29
Communication channel size: 1
Number of Timesteps: 8
Total Number of Layers: 6
Hidden Layers: 4
Parameters Number - Trainable: 2169
Parameters Number - ALL: 2169
Number of training samples: 1000
Number of testing samples: 500
Training Losses: array([0.47910428, 0.31010666, 0.28861037, 0.31567812, 0.2631107 ,
       0.22642536, 0.23679411, 0.22659573, 0.2454467 , 0.23155499])
Test Losses: [0.2127736210823059, 0.20489215850830078, 0.20900684595108032, 0.22126184403896332, 0.21904011070728302]
Time taken to stage node train data: datetime.timedelta(0, 135, 14000)
Time taken to train network: datetime.timedelta(0, 1483, 496400)
Time taken to stage node test data: datetime.timedelta(0, 35, 985000)
Time taken to test network: datetime.timedelta(0, 8, 673000)
Lowest Train Loss, at 1000 steps/epochs: 0.23155498504638672
MSE achieved: 0.21372
RMSE achieved: 0.46229860479997126
Error Rate: 17.466399999999975
Train MSE achieved: 0.2823427123108804
Train RMSE achieved: 0.531359306224028
Original Predictions: [0.5615584254264832, 0.534461259841919, 0.5073098540306091, 0.7337145805358887, 0.6075987815856934, 0.5701455473899841, 0.4864072799682617, 0.5918357968330383, 0.7638713717460632, 0.6008910536766052, 0.5434513688087463, 0.6332207918167114, 0.5976933836936951, 0.5647245049476624, 0.5833977460861206, 0.6234256625175476, 0.7494631409645081, 0.5723893046379089, 0.5921156406402588, 0.5693331956863403, 0.6805002093315125, 0.5547956824302673, 0.7236975431442261, 0.7097203731536865, 0.5266618728637695, 0.5403864979743958, 0.5879136323928833, 0.759222149848938, 0.8494040369987488, 0.571275532245636, 0.8871135711669922, 0.5508118867874146, 0.6439359188079834, 0.8066064119338989, 0.5978057384490967, 0.5650174617767334, 0.6605883836746216, 0.629615068435669, 0.464251309633255, 0.6987825632095337, 0.46385666728019714, 0.8392218351364136, 0.5013521909713745, 0.46723803877830505, 0.7406399250030518, 0.791949987411499, 0.6963598132133484, 0.6344173550605774, 0.6129933595657349, 0.46438390016555786, 0.4374910295009613, 0.5033296942710876, 0.6333328485488892, 0.7382667064666748, 0.5749619007110596, 0.6640182733535767, 0.5467545986175537, 0.7216269969940186, 0.6149072647094727, 0.6447934508323669, 0.6823593378067017, 0.5536015629768372, 0.7280670404434204, 0.6465965509414673, 0.48538023233413696, 0.5117239356040955, 0.7252618074417114, 0.8266387581825256, 0.6749523282051086, 0.47915613651275635, 0.58600914478302, 0.7066668272018433, 0.7442026138305664, 0.642677366733551, 0.5697407126426697, 0.47760260105133057, 0.618979275226593, 0.9589830636978149, 0.6616958975791931, 0.9336544871330261, 0.6077426671981812, 0.5477968454360962, 0.7441614866256714, 0.6012477278709412, 0.5453343987464905, 0.4826465845108032, 0.7193093299865723, 0.49018484354019165, 0.6740056276321411, 0.5378572940826416, 0.6221956610679626, 0.8586291670799255, 0.5795157551765442, 0.5184021592140198, 0.7342392802238464, 0.6558552384376526, 0.5692471861839294, 0.5596887469291687, 0.4860186278820038, 0.6208582520484924, 0.5926210880279541, 0.5049073696136475, 0.6424952745437622, 0.5815643072128296, 0.5166200995445251, 0.6582882404327393, 0.8333719968795776, 0.6170120239257812, 0.5774127244949341, 0.4999468922615051, 0.5688633322715759, 0.5490391254425049, 0.545867383480072, 0.6443552374839783, 0.5198707580566406, 0.5156302452087402, 0.6700801849365234, 0.5932790637016296, 0.5755714774131775, 0.6405405402183533, 0.537057638168335, 0.8139263391494751, 0.694695234298706, 0.8043836951255798, 0.5723748207092285, 0.6237857341766357, 0.49628835916519165, 0.690083384513855, 0.5331739783287048, 0.5889605283737183, 0.49864450097084045, 0.6050621867179871, 0.6176744699478149, 0.6562621593475342, 0.7954906225204468, 0.559430718421936, 0.7129980325698853, 0.6712599992752075, 0.6468513011932373, 0.8111480474472046, 0.620084285736084, 0.5310499668121338, 0.5486785173416138, 0.5994974374771118, 0.5899207592010498, 0.6344072818756104, 0.47435688972473145, 0.522752583026886, 0.6643868088722229, 0.778725266456604, 0.6731140613555908, 0.5025913715362549, 0.7207082509994507, 0.549437940120697, 0.663831889629364, 0.5224728584289551, 0.590812087059021, 0.501183271408081, 0.5897202491760254, 0.6655744910240173, 0.6315271258354187, 0.502505362033844, 0.5273071527481079, 0.5374692678451538, 0.6015785932540894, 0.6945580244064331, 0.5896546840667725, 0.48851504921913147, 0.4884966015815735, 0.5207697153091431, 0.5482645630836487, 0.7168473601341248, 0.5285688638687134, 0.6231239438056946, 0.741958737373352, 0.8231510519981384, 0.5183165073394775, 0.7358039617538452, 0.7386268377304077, 0.7729456424713135, 0.8142179250717163, 0.536251962184906, 0.5555425882339478, 0.5578696727752686, 0.5645145177841187, 0.7008389234542847, 0.5413004159927368, 0.7921008467674255, 0.8056825399398804, 0.5657746195793152, 0.5104002952575684, 0.5729465484619141, 0.7072277069091797, 0.6401525139808655, 0.6544562578201294, 0.5752596259117126, 0.5920137166976929, 0.7814773321151733, 0.6415152549743652, 0.5473244190216064, 0.7130424976348877, 0.581305205821991, 0.5802645683288574, 0.7413493394851685, 0.5887024998664856, 0.5298476815223694, 0.6345540285110474, 0.572784423828125, 0.5883579850196838, 0.6103653907775879, 0.5312783122062683, 0.7327094674110413, 0.6775575876235962, 0.6812741756439209, 0.5384092926979065, 1.0941104888916016, 0.5526542663574219, 0.5167432427406311, 0.6315268278121948, 0.606374979019165, 0.6185515522956848, 0.5675760507583618, 0.4688030779361725, 0.5560071468353271, 0.5629743933677673, 0.6567647457122803, 0.6627112030982971, 0.4857400953769684, 0.5784907341003418, 0.8883271813392639, 0.6047535538673401, 0.6650340557098389, 0.5469743609428406, 0.4937945604324341, 0.5436255931854248, 0.5259287357330322, 0.8661311864852905, 0.6841587424278259, 0.5768670439720154, 0.9286556243896484, 0.5506333708763123, 0.6075350642204285, 0.48292189836502075, 0.553143322467804, 0.5531814098358154, 0.622519850730896, 0.6640363335609436, 0.5148577690124512, 0.6150572299957275, 0.6991328001022339, 0.6721895933151245, 0.6399849057197571, 0.694250762462616, 0.5562440156936646, 0.6574391722679138, 0.6375169157981873, 0.5299143195152283, 0.5268141627311707, 0.6614078283309937, 0.749584972858429, 0.5048720240592957, 0.49436432123184204, 0.5792245864868164, 0.49295157194137573, 0.5262594819068909, 0.5812135338783264, 0.5277675986289978, 0.6786499619483948, 0.5280647277832031, 0.6739212274551392, 0.757227897644043, 0.5117821097373962, 0.5490047335624695, 0.6120754480361938, 0.8538025617599487, 0.84995436668396, 0.5007559657096863, 0.5590759515762329, 0.5136992335319519, 0.5463242530822754, 0.7001948356628418, 0.6973395347595215, 0.557495653629303, 0.7002719044685364, 0.5968635082244873, 0.52866530418396, 0.7088639736175537, 0.6639841794967651, 0.7635825872421265, 0.5854644775390625, 0.5397060513496399, 0.6885796785354614, 0.6823523044586182, 0.7136238813400269, 0.6345551609992981, 0.7811267375946045, 0.6265696287155151, 0.8008116483688354, 0.6005910038948059, 0.5848581194877625, 0.5279500484466553, 0.732672393321991, 0.5544853806495667, 0.5260728597640991, 0.5738420486450195, 0.6717104911804199, 0.659502387046814, 0.715071976184845, 0.66170734167099, 0.597442626953125, 0.5597022175788879, 0.5753720998764038, 0.5429503321647644, 0.7152405381202698, 0.5807564854621887, 0.4883986711502075, 0.46517595648765564, 0.7297705411911011, 0.6617145538330078, 0.5199235677719116, 0.5796675682067871, 0.5792071223258972, 0.5471832156181335, 0.7099918127059937, 0.5156898498535156, 0.6300145983695984, 0.561968207359314, 0.6299129128456116, 0.6913089752197266, 0.5855406522750854, 0.5399278402328491, 0.5456504821777344, 0.4917398691177368, 0.7068456411361694, 0.6211344003677368, 0.531080424785614, 0.5383789539337158, 0.5972224473953247, 0.6699888706207275, 0.6047231554985046, 0.6170679926872253, 0.7284931540489197, 0.610887885093689, 0.5088568925857544, 0.4690662622451782, 0.5419530868530273, 0.8233828544616699, 0.6605812311172485, 0.4954324960708618, 0.6075297594070435, 0.5005742907524109, 0.665560245513916, 0.5318038463592529, 0.6001369953155518, 0.5751639604568481, 0.6402639150619507, 0.5547671318054199, 0.6999746561050415, 0.4892920255661011, 0.6405426263809204, 0.6481485962867737, 0.8370530009269714, 0.6073625683784485, 0.6159479022026062, 0.5631148219108582, 0.5570393800735474, 0.5796096324920654, 0.6212221384048462, 0.7312912940979004, 0.5973080396652222, 0.6434361934661865, 0.5397944450378418, 0.4975832998752594, 0.5791645050048828, 0.579383373260498, 0.7295814156532288, 0.6893130540847778, 0.5449650883674622, 0.5594062805175781, 0.6584098935127258, 0.4703795909881592, 0.7084683179855347, 0.6339861154556274, 0.6843084096908569, 0.7851845026016235, 0.4486241936683655, 0.6650795340538025, 0.6833093166351318, 0.6649656295776367, 0.7171420454978943, 0.610625684261322, 0.606838583946228, 0.8604870438575745, 0.592533528804779, 0.5920192003250122, 0.6198042631149292, 0.6085165143013, 0.7998542785644531, 0.5893797278404236, 0.5921190977096558, 0.6573028564453125, 0.5670035481452942, 0.6114323735237122, 0.47614550590515137, 0.5356727838516235, 0.5426145195960999, 0.6971917748451233, 0.6876054406166077, 0.8411901593208313, 0.5153791308403015, 0.666985273361206, 0.621794581413269, 0.6350494623184204, 0.503109335899353, 0.5669887661933899, 0.6455938816070557, 0.9335442781448364, 0.6033433675765991, 0.4539518356323242, 0.659040093421936, 0.46648648381233215, 0.4636787176132202, 0.5069975256919861, 0.7847311496734619, 0.5303593873977661, 0.5348876714706421, 0.5141941905021667, 0.8225018978118896, 0.4971585273742676, 0.5122806429862976, 0.5224164724349976, 0.48494938015937805, 0.7184877991676331, 0.7284826636314392, 0.9769287109375, 0.7277523279190063, 0.6737626791000366, 0.6219108700752258, 0.6117597222328186, 0.6733372807502747, 0.64561927318573, 0.6931556463241577, 0.662517786026001, 0.6666487455368042, 0.4606301486492157, 0.7194361686706543, 0.7203621864318848, 0.6914771795272827, 0.6059013605117798, 0.6304739713668823, 0.6808035373687744, 0.4994305968284607, 0.7319483757019043, 0.4657355844974518, 0.673067033290863, 0.5588899850845337, 0.6588729023933411, 0.4392845928668976, 0.5480812191963196, 0.5953304767608643, 0.5289278030395508, 0.5720204710960388, 0.4748830795288086, 0.5527998208999634, 0.5486398935317993, 0.7120052576065063, 0.6384109258651733, 0.5888120532035828, 0.5604634881019592, 0.5741221308708191, 0.725887656211853, 0.572891891002655, 0.6174170970916748, 0.5572388172149658, 0.7178395986557007, 0.6447427272796631, 0.9784834980964661, 0.7183383107185364, 0.6314297914505005, 0.7845421433448792, 0.6591531038284302, 0.4976954460144043, 0.6528267860412598, 0.621927797794342, 0.6265615820884705, 0.5650855898857117, 0.7511056065559387, 0.5260863900184631, 0.5376685857772827, 0.5194003582000732, 0.5338888168334961, 0.6539827585220337, 0.5136914253234863, 0.8603899478912354, 0.5563551187515259, 0.6762006282806396, 0.5198595523834229, 0.8533889055252075, 0.5549123287200928, 0.882267415523529]
Original/Rounded Targets: [1.0, 1.0, 0.01, 0.01, 1.0, 1.0, 1.0, 0.01, 0.01, 0.01, 1.0, 0.01, 1.0, 1.0, 1.0, 1.0, 1.0, 0.01, 1.0, 1.0, 0.01, 1.0, 1.0, 0.01, 1.0, 1.0, 0.01, 1.0, 0.01, 1.0, 1.0, 1.0, 1.0, 1.0, 0.01, 1.0, 1.0, 1.0, 1.0, 0.01, 0.01, 1.0, 1.0, 1.0, 1.0, 1.0, 0.01, 1.0, 1.0, 0.01, 0.01, 0.01, 0.01, 1.0, 0.01, 1.0, 0.01, 1.0, 1.0, 1.0, 1.0, 1.0, 1.0, 1.0, 0.01, 1.0, 0.01, 1.0, 1.0, 1.0, 0.01, 1.0, 1.0, 1.0, 1.0, 0.01, 0.01, 1.0, 1.0, 1.0, 1.0, 1.0, 1.0, 1.0, 1.0, 1.0, 1.0, 1.0, 1.0, 0.01, 1.0, 1.0, 0.01, 0.01, 1.0, 1.0, 1.0, 0.01, 1.0, 0.01, 1.0, 0.01, 1.0, 1.0, 1.0, 1.0, 0.01, 1.0, 1.0, 1.0, 0.01, 0.01, 0.01, 0.01, 1.0, 0.01, 1.0, 1.0, 1.0, 1.0, 1.0, 1.0, 0.01, 1.0, 1.0, 0.01, 1.0, 1.0, 1.0, 1.0, 1.0, 0.01, 1.0, 1.0, 1.0, 1.0, 1.0, 1.0, 0.01, 1.0, 1.0, 1.0, 1.0, 1.0, 0.01, 1.0, 1.0, 1.0, 1.0, 0.01, 1.0, 1.0, 1.0, 0.01, 1.0, 1.0, 1.0, 0.01, 1.0, 1.0, 1.0, 1.0, 1.0, 1.0, 0.01, 1.0, 1.0, 1.0, 1.0, 0.01, 1.0, 1.0, 0.01, 1.0, 1.0, 1.0, 0.01, 1.0, 0.01, 1.0, 1.0, 1.0, 0.01, 1.0, 0.01, 1.0, 1.0, 1.0, 1.0, 1.0, 0.01, 1.0, 1.0, 1.0, 0.01, 0.01, 1.0, 1.0, 1.0, 0.01, 1.0, 1.0, 0.01, 1.0, 0.01, 1.0, 0.01, 1.0, 1.0, 1.0, 1.0, 1.0, 0.01, 0.01, 1.0, 1.0, 1.0, 1.0, 1.0, 1.0, 0.01, 1.0, 0.01, 0.01, 1.0, 0.01, 1.0, 1.0, 0.01, 1.0, 0.01, 0.01, 1.0, 0.01, 1.0, 1.0, 1.0, 1.0, 1.0, 1.0, 0.01, 1.0, 1.0, 1.0, 1.0, 1.0, 1.0, 1.0, 1.0, 0.01, 0.01, 0.01, 1.0, 1.0, 1.0, 1.0, 1.0, 0.01, 1.0, 0.01, 1.0, 1.0, 1.0, 0.01, 1.0, 1.0, 0.01, 1.0, 1.0, 1.0, 1.0, 1.0, 1.0, 1.0, 1.0, 1.0, 1.0, 1.0, 0.01, 1.0, 1.0, 0.01, 0.01, 1.0, 1.0, 1.0, 1.0, 1.0, 0.01, 1.0, 1.0, 1.0, 1.0, 1.0, 1.0, 1.0, 1.0, 1.0, 0.01, 1.0, 1.0, 1.0, 1.0, 1.0, 1.0, 0.01, 1.0, 1.0, 1.0, 1.0, 0.01, 1.0, 1.0, 1.0, 1.0, 0.01, 1.0, 0.01, 1.0, 0.01, 1.0, 1.0, 1.0, 1.0, 1.0, 0.01, 1.0, 1.0, 1.0, 0.01, 0.01, 1.0, 0.01, 0.01, 0.01, 1.0, 0.01, 1.0, 1.0, 1.0, 0.01, 0.01, 1.0, 1.0, 1.0, 0.01, 0.01, 1.0, 1.0, 0.01, 0.01, 1.0, 1.0, 1.0, 1.0, 1.0, 0.01, 1.0, 1.0, 1.0, 0.01, 1.0, 0.01, 1.0, 0.01, 1.0, 0.01, 1.0, 1.0, 1.0, 1.0, 1.0, 1.0, 1.0, 1.0, 1.0, 1.0, 0.01, 1.0, 1.0, 1.0, 0.01, 1.0, 1.0, 0.01, 1.0, 1.0, 1.0, 1.0, 1.0, 1.0, 0.01, 1.0, 1.0, 0.01, 1.0, 1.0, 1.0, 0.01, 1.0, 1.0, 1.0, 1.0, 1.0, 1.0, 0.01, 1.0, 0.01, 1.0, 1.0, 1.0, 0.01, 1.0, 1.0, 1.0, 1.0, 1.0, 0.01, 0.01, 1.0, 0.01, 0.01, 1.0, 0.01, 1.0, 1.0, 1.0, 1.0, 0.01, 1.0, 1.0, 1.0, 0.01, 1.0, 1.0, 1.0, 1.0, 1.0, 0.01, 0.01, 0.01, 1.0, 1.0, 1.0, 0.01, 1.0, 1.0, 0.01, 1.0, 0.01, 1.0, 1.0, 1.0, 1.0, 1.0, 1.0, 0.01, 1.0, 0.01, 1.0, 1.0, 0.01, 1.0, 0.01, 1.0, 0.01, 0.01, 1.0, 1.0, 0.01, 1.0, 1.0, 0.01, 1.0, 1.0, 0.01, 1.0, 1.0, 1.0, 1.0, 0.01, 1.0, 1.0, 1.0, 1.0, 1.0, 1.0, 1.0, 1.0, 0.01, 1.0, 1.0, 0.01, 1.0, 1.0, 1.0, 0.01, 1.0, 0.01, 0.01]
Rounded Predictions: [0.6, 0.5, 0.5, 0.7, 0.6, 0.6, 0.5, 0.6, 0.8, 0.6, 0.5, 0.6, 0.6, 0.6, 0.6, 0.6, 0.7, 0.6, 0.6, 0.6, 0.7, 0.6, 0.7, 0.7, 0.5, 0.5, 0.6, 0.8, 0.8, 0.6, 0.9, 0.6, 0.6, 0.8, 0.6, 0.6, 0.7, 0.6, 0.5, 0.7, 0.5, 0.8, 0.5, 0.5, 0.7, 0.8, 0.7, 0.6, 0.6, 0.5, 0.4, 0.5, 0.6, 0.7, 0.6, 0.7, 0.5, 0.7, 0.6, 0.6, 0.7, 0.6, 0.7, 0.6, 0.5, 0.5, 0.7, 0.8, 0.7, 0.5, 0.6, 0.7, 0.7, 0.6, 0.6, 0.5, 0.6, 1.0, 0.7, 0.9, 0.6, 0.5, 0.7, 0.6, 0.5, 0.5, 0.7, 0.5, 0.7, 0.5, 0.6, 0.9, 0.6, 0.5, 0.7, 0.7, 0.6, 0.6, 0.5, 0.6, 0.6, 0.5, 0.6, 0.6, 0.5, 0.7, 0.8, 0.6, 0.6, 0.5, 0.6, 0.5, 0.5, 0.6, 0.5, 0.5, 0.7, 0.6, 0.6, 0.6, 0.5, 0.8, 0.7, 0.8, 0.6, 0.6, 0.5, 0.7, 0.5, 0.6, 0.5, 0.6, 0.6, 0.7, 0.8, 0.6, 0.7, 0.7, 0.6, 0.8, 0.6, 0.5, 0.5, 0.6, 0.6, 0.6, 0.5, 0.5, 0.7, 0.8, 0.7, 0.5, 0.7, 0.5, 0.7, 0.5, 0.6, 0.5, 0.6, 0.7, 0.6, 0.5, 0.5, 0.5, 0.6, 0.7, 0.6, 0.5, 0.5, 0.5, 0.5, 0.7, 0.5, 0.6, 0.7, 0.8, 0.5, 0.7, 0.7, 0.8, 0.8, 0.5, 0.6, 0.6, 0.6, 0.7, 0.5, 0.8, 0.8, 0.6, 0.5, 0.6, 0.7, 0.6, 0.7, 0.6, 0.6, 0.8, 0.6, 0.5, 0.7, 0.6, 0.6, 0.7, 0.6, 0.5, 0.6, 0.6, 0.6, 0.6, 0.5, 0.7, 0.7, 0.7, 0.5, 1.1, 0.6, 0.5, 0.6, 0.6, 0.6, 0.6, 0.5, 0.6, 0.6, 0.7, 0.7, 0.5, 0.6, 0.9, 0.6, 0.7, 0.5, 0.5, 0.5, 0.5, 0.9, 0.7, 0.6, 0.9, 0.6, 0.6, 0.5, 0.6, 0.6, 0.6, 0.7, 0.5, 0.6, 0.7, 0.7, 0.6, 0.7, 0.6, 0.7, 0.6, 0.5, 0.5, 0.7, 0.7, 0.5, 0.5, 0.6, 0.5, 0.5, 0.6, 0.5, 0.7, 0.5, 0.7, 0.8, 0.5, 0.5, 0.6, 0.9, 0.8, 0.5, 0.6, 0.5, 0.5, 0.7, 0.7, 0.6, 0.7, 0.6, 0.5, 0.7, 0.7, 0.8, 0.6, 0.5, 0.7, 0.7, 0.7, 0.6, 0.8, 0.6, 0.8, 0.6, 0.6, 0.5, 0.7, 0.6, 0.5, 0.6, 0.7, 0.7, 0.7, 0.7, 0.6, 0.6, 0.6, 0.5, 0.7, 0.6, 0.5, 0.5, 0.7, 0.7, 0.5, 0.6, 0.6, 0.5, 0.7, 0.5, 0.6, 0.6, 0.6, 0.7, 0.6, 0.5, 0.5, 0.5, 0.7, 0.6, 0.5, 0.5, 0.6, 0.7, 0.6, 0.6, 0.7, 0.6, 0.5, 0.5, 0.5, 0.8, 0.7, 0.5, 0.6, 0.5, 0.7, 0.5, 0.6, 0.6, 0.6, 0.6, 0.7, 0.5, 0.6, 0.6, 0.8, 0.6, 0.6, 0.6, 0.6, 0.6, 0.6, 0.7, 0.6, 0.6, 0.5, 0.5, 0.6, 0.6, 0.7, 0.7, 0.5, 0.6, 0.7, 0.5, 0.7, 0.6, 0.7, 0.8, 0.4, 0.7, 0.7, 0.7, 0.7, 0.6, 0.6, 0.9, 0.6, 0.6, 0.6, 0.6, 0.8, 0.6, 0.6, 0.7, 0.6, 0.6, 0.5, 0.5, 0.5, 0.7, 0.7, 0.8, 0.5, 0.7, 0.6, 0.6, 0.5, 0.6, 0.6, 0.9, 0.6, 0.5, 0.7, 0.5, 0.5, 0.5, 0.8, 0.5, 0.5, 0.5, 0.8, 0.5, 0.5, 0.5, 0.5, 0.7, 0.7, 1.0, 0.7, 0.7, 0.6, 0.6, 0.7, 0.6, 0.7, 0.7, 0.7, 0.5, 0.7, 0.7, 0.7, 0.6, 0.6, 0.7, 0.5, 0.7, 0.5, 0.7, 0.6, 0.7, 0.4, 0.5, 0.6, 0.5, 0.6, 0.5, 0.6, 0.5, 0.7, 0.6, 0.6, 0.6, 0.6, 0.7, 0.6, 0.6, 0.6, 0.7, 0.6, 1.0, 0.7, 0.6, 0.8, 0.7, 0.5, 0.7, 0.6, 0.6, 0.6, 0.8, 0.5, 0.5, 0.5, 0.5, 0.7, 0.5, 0.9, 0.6, 0.7, 0.5, 0.9, 0.6, 0.9]
Step MSE: [0.21230000000000002, 0.20835, 0.20976666666666666, 0.2121, 0.21372]
