Function: 3 - Compare    
Architecture/States: N/A
Number of Nodes: 2
Sequence Length: 2
Number of Timesteps: 2
Steps/Epochs: 50000
Step Losses: [0.24072716097906233, 0.140109231283231, 0.0532591927171256, 0.038357863642062624, 0.02412198382756303, 0.020459617154021104, 0.019957541470160687, 0.013436655817264925, 0.014184093426093648, 0.015334389882367495, 0.012318282949453972, 0.009253582237761838, 0.01011198913525285, 0.009426184032518535, 0.010622980834990373, 0.007770649789376628, 0.005471825152154948, 0.0073772466771585814, 0.009450374765179312, 0.005779292294010971, 0.008417680873513824, 0.0071059073929207114, 0.005639393493581304, 0.0088678507708503, 0.005315417269439869, 0.010061338206399857, 0.006445008479296965, 0.00646648086495783, 0.005467150380651567, 0.00794525791296001, 0.005896042820479499, 0.005820658008877491, 0.005882606224686434, 0.004787542298890513, 0.004390703726156378, 0.007120624498423805, 0.005404768409695886, 0.005504421049335397, 0.004241895713562596, 0.002354237178321559, 0.010415623155340004, 0.005552476324220215, 0.006926679869330602, 0.00609638704079524, 0.004836742370186771, 0.009021689689263262, 0.003995679494736684, 0.004061347908779101, 0.0068758645131099605, 0.0038224081456757616]
Time: 0:10:15.493740
Lowest Loss, at 50000 steps/epochs: 0.0038224081456757616
